{
  "variables": {
    "iso_url": "https://software-static.download.prss.microsoft.com/pr/download/17763.737.190906-2324.rs5_release_svc_refresh_SERVER_EVAL_x64FRE_en-us_1.iso",
    "iso_path": "{{pwd}}/iso/17763.737.190906-2324.rs5_release_svc_refresh_SERVER_EVAL_x64FRE_en-us_1.iso",
    "iso_sha256": "sha256:549bca46c055157291be6c22a3aaaed8330e78ef4382c99ee82c896426a1cee1",
    "timestamp": "{{isotime `2006-01-02`}}",
    "headless": "false",
    "boot_wait": "2s",

    
    "name": "base-box-winserver2019",
    "cpu": "2",
    "cores": "2",
    "ram": "4096",
    "disk_size": "102400",
    "virtual_disk_dev": "lsisas1068",
    "virtual_version": "17",
    "virtual_firmware": "efi",
    "vmware_guest_os_type": "windows9-64",
    "virtualbox_guest_os_type": "Windows2019_64",
    "communicator_username": "vagrant",
    "communicator_password": "vagrant"
  },

  "builders": [
    {
      "type": "vmware-iso",
      "format": "ova",
      "headless": "{{user `headless`}}",
      "name": "vmware",
      "vm_name": "vmware-{{user `name`}}_{{user `timestamp`}}",
      "cpus": "{{user `cpu`}}",
      "cores": "{{user `cores`}}",
      "memory": "{{user `ram`}}",
      "disk_size": "{{user `disk_size`}}",
      "disk_type_id": 0,
      "sound": false,
      "guest_os_type": "{{user `vmware_guest_os_type`}}",
      "communicator": "winrm",
      "winrm_username": "{{user `communicator_username`}}",
      "winrm_password": "{{user `communicator_password`}}",
      "winrm_timeout": "99h",
      "shutdown_command": "C:\\sysprep-shutdown.bat",
      "boot_wait": "{{user `boot_wait`}}",
      "boot_command": ["<spacebar>", "<spacebar>", "<spacebar>", "<spacebar>", "<spacebar>", "<wait>", "<wait>", "<enter>"],
      "iso_urls": [
        "{{user `iso_path`}}",
        "{{user `iso_url`}}"
      ],
      "cd_files": [
        "files/answer_files/winserver2019/vagrant/autounattend.xml",
        "files/answer_files/sysprep/sysprep.xml",
        "files/scripts/windows/enable-winrm-http.ps1"
      ],
      "iso_checksum": "{{user `iso_sha256`}}",
      "iso_target_path": "{{user `iso_path`}}",
      "output_directory": "vmware_output_{{user `name`}}",
      "vmx_data": {
        "scsi0.virtualDev": "{{user `virtual_disk_dev`}}",
        "virtualHW.version": "{{user `virtual_version`}}",
        "firmware": "{{user `virtual_firmware`}}"
      }
    },
    {
      "type": "virtualbox-iso",
      "format": "ova",
      "headless": "{{user `headless`}}",
      "vm_name": "virtualbox-{{user `name`}}_{{user `timestamp`}}",
      "disk_size": "{{user `disk_size`}}",
      "guest_os_type": "{{user `virtualbox_guest_os_type`}}",
      "communicator": "winrm",
      "winrm_username": "{{user `communicator_username`}}",
      "winrm_password": "{{user `communicator_password`}}",
      "winrm_timeout": "99h",
      "shutdown_command": "C:\\sysprep-shutdown.bat",
      "boot_wait": "{{user `boot_wait`}}",
      "boot_command": ["<spacebar>", "<spacebar>", "<spacebar>", "<spacebar>", "<spacebar>", "<wait>", "<wait>", "<enter>"],
      "iso_urls": [
        "{{user `iso_path`}}",
        "{{user `iso_url`}}"
      ],
      "cd_files": [
        "files/answer_files/winserver2019/vagrant/autounattend.xml",
        "files/answer_files/sysprep/sysprep.xml",
        "files/scripts/windows/enable-winrm-http.ps1"
      ],
      "iso_checksum": "{{user `iso_sha256`}}",
      "iso_target_path": "{{user `iso_path`}}",
      "output_directory": "base-box_output",
      "guest_additions_mode": "attach",
      "vboxmanage": [
        ["modifyvm", "{{.Name}}", "--nat-localhostreachable1", "on"],
        ["modifyvm", "{{.Name}}", "--firmware", "efi"],
        ["modifyvm", "{{.Name}}", "--memory", "{{user `ram`}}"],
        ["modifyvm", "{{.Name}}", "--cpus", "{{user `cpu`}}"],
        ["modifyvm", "{{.Name}}", "--vram", "256"],
        ["modifyvm", "{{.Name}}", "--audio-driver", "none"]
      ],
      "export_opts": [
        "--manifest",
        "--vsys", "0"
      ]
    }
  ],

  "provisioners": [
    {
      "type": "powershell",
      "elevated_user": "{{user `communicator_username`}}",
      "elevated_password": "{{user `communicator_password`}}",
      "pause_before": "30s",
      "script": "files/scripts/windows/init.ps1"
    },
    {
      "type": "file",
      "source": "files/scripts/windows/sysprep-shutdown.bat",
      "destination": "C:\\sysprep-shutdown.bat"
    },
    {
      "type": "powershell",
      "elevated_user": "Administrator",
      "elevated_password": "{{user `communicator_password`}}",
      "pause_before": "30s",
      "valid_exit_codes": ["3010", "1168"],
      "inline": [
        "DISM /Online /Set-edition:ServerStandard /ProductKey:N69G4-B89J2-4G8F4-WWYCC-J464C /AcceptEula /NoRestart /Quiet"
      ]
    },
    {
      "type": "windows-restart",
      "restart_timeout": "30m",
      "restart_command": "shutdown /r /f /t 0 /c \"packer restart\"",
      "restart_check_command": "powershell -command \"& {Write-Output 'restarted.'}\""
    },
    {
      "type": "powershell",
      "elevated_user": "{{user `communicator_username`}}",
      "elevated_password": "{{user `communicator_password`}}",
      "pause_before": "30s",
      "script": "files/scripts/windows/setup-vboxtools.ps1"
    },
    {
      "type": "powershell",
      "elevated_user": "{{user `communicator_username`}}",
      "elevated_password": "{{user `communicator_password`}}",
      "pause_before": "30s",
      "script": "files/scripts/windows/cleanup.ps1"
    },
    {
      "type": "windows-restart",
      "restart_timeout": "30m",
      "restart_command": "shutdown /r /f /t 0 /c \"packer restart\"",
      "restart_check_command": "powershell -command \"& {Write-Output 'restarted.'}\""
    }
  ],

  "post-processors": [
    {
      "type": "vagrant",
      "keep_input_artifact": false,
      "output": "box/{{.Provider}}-{user `name`}}.box"
    }
  ]
}
